^C:\USERS\THEOD\SOURCE\REPOS\PTUT_SERVEUR\PTUT_SERVEUR\EDGE.CPP
C:\USERS\THEOD\SOURCE\REPOS\PTUT_SERVEUR\PTUT_SERVEUR\EDGE.H
D:\PROGRAMME\VISUAL_STUDIO\VC\TOOLS\MSVC\14.22.27905\INCLUDE\VECTOR
D:\PROGRAMME\VISUAL_STUDIO\VC\TOOLS\MSVC\14.22.27905\INCLUDE\XMEMORY
D:\PROGRAMME\VISUAL_STUDIO\VC\TOOLS\MSVC\14.22.27905\INCLUDE\CSTDINT
D:\PROGRAMME\VISUAL_STUDIO\VC\TOOLS\MSVC\14.22.27905\INCLUDE\YVALS.H
D:\PROGRAMME\VISUAL_STUDIO\VC\TOOLS\MSVC\14.22.27905\INCLUDE\YVALS_CORE.H
D:\PROGRAMME\VISUAL_STUDIO\VC\TOOLS\MSVC\14.22.27905\INCLUDE\CRTDEFS.H
D:\PROGRAMME\VISUAL_STUDIO\VC\TOOLS\MSVC\14.22.27905\INCLUDE\VCRUNTIME.H
D:\PROGRAMME\VISUAL_STUDIO\VC\TOOLS\MSVC\14.22.27905\INCLUDE\SAL.H
D:\PROGRAMME\VISUAL_STUDIO\VC\TOOLS\MSVC\14.22.27905\INCLUDE\CONCURRENCYSAL.H
D:\PROGRAMME\VISUAL_STUDIO\VC\TOOLS\MSVC\14.22.27905\INCLUDE\VADEFS.H
D:\WINDOWS KITS\10\INCLUDE\10.0.18362.0\UCRT\CORECRT.H
D:\PROGRAMME\VISUAL_STUDIO\VC\TOOLS\MSVC\14.22.27905\INCLUDE\XKEYCHECK.H
D:\WINDOWS KITS\10\INCLUDE\10.0.18362.0\UCRT\CRTDBG.H
D:\PROGRAMME\VISUAL_STUDIO\VC\TOOLS\MSVC\14.22.27905\INCLUDE\VCRUNTIME_NEW_DEBUG.H
D:\PROGRAMME\VISUAL_STUDIO\VC\TOOLS\MSVC\14.22.27905\INCLUDE\VCRUNTIME_NEW.H
D:\PROGRAMME\VISUAL_STUDIO\VC\TOOLS\MSVC\14.22.27905\INCLUDE\USE_ANSI.H
D:\PROGRAMME\VISUAL_STUDIO\VC\TOOLS\MSVC\14.22.27905\INCLUDE\STDINT.H
D:\PROGRAMME\VISUAL_STUDIO\VC\TOOLS\MSVC\14.22.27905\INCLUDE\CSTDLIB
D:\WINDOWS KITS\10\INCLUDE\10.0.18362.0\UCRT\MATH.H
D:\WINDOWS KITS\10\INCLUDE\10.0.18362.0\UCRT\CORECRT_MATH.H
D:\WINDOWS KITS\10\INCLUDE\10.0.18362.0\UCRT\STDLIB.H
D:\WINDOWS KITS\10\INCLUDE\10.0.18362.0\UCRT\CORECRT_MALLOC.H
D:\WINDOWS KITS\10\INCLUDE\10.0.18362.0\UCRT\CORECRT_SEARCH.H
D:\WINDOWS KITS\10\INCLUDE\10.0.18362.0\UCRT\STDDEF.H
D:\WINDOWS KITS\10\INCLUDE\10.0.18362.0\UCRT\CORECRT_WSTDLIB.H
D:\PROGRAMME\VISUAL_STUDIO\VC\TOOLS\MSVC\14.22.27905\INCLUDE\LIMITS.H
D:\PROGRAMME\VISUAL_STUDIO\VC\TOOLS\MSVC\14.22.27905\INCLUDE\LIMITS
D:\PROGRAMME\VISUAL_STUDIO\VC\TOOLS\MSVC\14.22.27905\INCLUDE\CFLOAT
D:\WINDOWS KITS\10\INCLUDE\10.0.18362.0\UCRT\FLOAT.H
D:\PROGRAMME\VISUAL_STUDIO\VC\TOOLS\MSVC\14.22.27905\INCLUDE\CLIMITS
D:\PROGRAMME\VISUAL_STUDIO\VC\TOOLS\MSVC\14.22.27905\INCLUDE\CWCHAR
D:\PROGRAMME\VISUAL_STUDIO\VC\TOOLS\MSVC\14.22.27905\INCLUDE\CSTDIO
D:\WINDOWS KITS\10\INCLUDE\10.0.18362.0\UCRT\STDIO.H
D:\WINDOWS KITS\10\INCLUDE\10.0.18362.0\UCRT\CORECRT_WSTDIO.H
D:\WINDOWS KITS\10\INCLUDE\10.0.18362.0\UCRT\CORECRT_STDIO_CONFIG.H
D:\WINDOWS KITS\10\INCLUDE\10.0.18362.0\UCRT\WCHAR.H
D:\WINDOWS KITS\10\INCLUDE\10.0.18362.0\UCRT\CORECRT_MEMCPY_S.H
D:\WINDOWS KITS\10\INCLUDE\10.0.18362.0\UCRT\ERRNO.H
D:\PROGRAMME\VISUAL_STUDIO\VC\TOOLS\MSVC\14.22.27905\INCLUDE\VCRUNTIME_STRING.H
D:\WINDOWS KITS\10\INCLUDE\10.0.18362.0\UCRT\CORECRT_WCONIO.H
D:\WINDOWS KITS\10\INCLUDE\10.0.18362.0\UCRT\CORECRT_WCTYPE.H
D:\WINDOWS KITS\10\INCLUDE\10.0.18362.0\UCRT\CORECRT_WDIRECT.H
D:\WINDOWS KITS\10\INCLUDE\10.0.18362.0\UCRT\CORECRT_WIO.H
D:\WINDOWS KITS\10\INCLUDE\10.0.18362.0\UCRT\CORECRT_SHARE.H
D:\WINDOWS KITS\10\INCLUDE\10.0.18362.0\UCRT\CORECRT_WPROCESS.H
D:\WINDOWS KITS\10\INCLUDE\10.0.18362.0\UCRT\CORECRT_WSTRING.H
D:\WINDOWS KITS\10\INCLUDE\10.0.18362.0\UCRT\CORECRT_WTIME.H
D:\WINDOWS KITS\10\INCLUDE\10.0.18362.0\UCRT\SYS\STAT.H
D:\WINDOWS KITS\10\INCLUDE\10.0.18362.0\UCRT\SYS\TYPES.H
D:\PROGRAMME\VISUAL_STUDIO\VC\TOOLS\MSVC\14.22.27905\INCLUDE\XSTDDEF
D:\PROGRAMME\VISUAL_STUDIO\VC\TOOLS\MSVC\14.22.27905\INCLUDE\CSTDDEF
D:\PROGRAMME\VISUAL_STUDIO\VC\TOOLS\MSVC\14.22.27905\INCLUDE\XTR1COMMON
D:\PROGRAMME\VISUAL_STUDIO\VC\TOOLS\MSVC\14.22.27905\INCLUDE\INITIALIZER_LIST
D:\PROGRAMME\VISUAL_STUDIO\VC\TOOLS\MSVC\14.22.27905\INCLUDE\NEW
D:\PROGRAMME\VISUAL_STUDIO\VC\TOOLS\MSVC\14.22.27905\INCLUDE\EXCEPTION
D:\PROGRAMME\VISUAL_STUDIO\VC\TOOLS\MSVC\14.22.27905\INCLUDE\TYPE_TRAITS
D:\WINDOWS KITS\10\INCLUDE\10.0.18362.0\UCRT\MALLOC.H
D:\PROGRAMME\VISUAL_STUDIO\VC\TOOLS\MSVC\14.22.27905\INCLUDE\VCRUNTIME_EXCEPTION.H
D:\PROGRAMME\VISUAL_STUDIO\VC\TOOLS\MSVC\14.22.27905\INCLUDE\EH.H
D:\WINDOWS KITS\10\INCLUDE\10.0.18362.0\UCRT\CORECRT_TERMINATE.H
D:\PROGRAMME\VISUAL_STUDIO\VC\TOOLS\MSVC\14.22.27905\INCLUDE\XATOMIC.H
D:\PROGRAMME\VISUAL_STUDIO\VC\TOOLS\MSVC\14.22.27905\INCLUDE\INTRIN0.H
D:\PROGRAMME\VISUAL_STUDIO\VC\TOOLS\MSVC\14.22.27905\INCLUDE\XUTILITY
D:\PROGRAMME\VISUAL_STUDIO\VC\TOOLS\MSVC\14.22.27905\INCLUDE\CSTRING
D:\WINDOWS KITS\10\INCLUDE\10.0.18362.0\UCRT\STRING.H
D:\WINDOWS KITS\10\INCLUDE\10.0.18362.0\UCRT\CORECRT_MEMORY.H
D:\PROGRAMME\VISUAL_STUDIO\VC\TOOLS\MSVC\14.22.27905\INCLUDE\UTILITY
^C:\USERS\THEOD\SOURCE\REPOS\PTUT_SERVEUR\PTUT_SERVEUR\TODO.CPP
^C:\USERS\THEOD\SOURCE\REPOS\PTUT_SERVEUR\PTUT_SERVEUR\TRIGO.CPP
C:\USERS\THEOD\SOURCE\REPOS\PTUT_SERVEUR\PTUT_SERVEUR\TRIGO.H
C:\USERS\THEOD\SOURCE\REPOS\PTUT_SERVEUR\PTUT_SERVEUR\ROADDESCRIPTOR.H
D:\PROGRAMME\VISUAL_STUDIO\VC\TOOLS\MSVC\14.22.27905\INCLUDE\IOSTREAM
D:\PROGRAMME\VISUAL_STUDIO\VC\TOOLS\MSVC\14.22.27905\INCLUDE\ISTREAM
D:\PROGRAMME\VISUAL_STUDIO\VC\TOOLS\MSVC\14.22.27905\INCLUDE\OSTREAM
D:\PROGRAMME\VISUAL_STUDIO\VC\TOOLS\MSVC\14.22.27905\INCLUDE\IOS
D:\PROGRAMME\VISUAL_STUDIO\VC\TOOLS\MSVC\14.22.27905\INCLUDE\XLOCNUM
D:\PROGRAMME\VISUAL_STUDIO\VC\TOOLS\MSVC\14.22.27905\INCLUDE\CLIMITS
D:\PROGRAMME\VISUAL_STUDIO\VC\TOOLS\MSVC\14.22.27905\INCLUDE\YVALS_CORE.H
D:\PROGRAMME\VISUAL_STUDIO\VC\TOOLS\MSVC\14.22.27905\INCLUDE\CRTDEFS.H
D:\PROGRAMME\VISUAL_STUDIO\VC\TOOLS\MSVC\14.22.27905\INCLUDE\VCRUNTIME.H
D:\PROGRAMME\VISUAL_STUDIO\VC\TOOLS\MSVC\14.22.27905\INCLUDE\SAL.H
D:\PROGRAMME\VISUAL_STUDIO\VC\TOOLS\MSVC\14.22.27905\INCLUDE\CONCURRENCYSAL.H
D:\PROGRAMME\VISUAL_STUDIO\VC\TOOLS\MSVC\14.22.27905\INCLUDE\VADEFS.H
D:\WINDOWS KITS\10\INCLUDE\10.0.18362.0\UCRT\CORECRT.H
D:\PROGRAMME\VISUAL_STUDIO\VC\TOOLS\MSVC\14.22.27905\INCLUDE\XKEYCHECK.H
D:\PROGRAMME\VISUAL_STUDIO\VC\TOOLS\MSVC\14.22.27905\INCLUDE\LIMITS.H
D:\PROGRAMME\VISUAL_STUDIO\VC\TOOLS\MSVC\14.22.27905\INCLUDE\CMATH
D:\PROGRAMME\VISUAL_STUDIO\VC\TOOLS\MSVC\14.22.27905\INCLUDE\YVALS.H
D:\WINDOWS KITS\10\INCLUDE\10.0.18362.0\UCRT\CRTDBG.H
D:\PROGRAMME\VISUAL_STUDIO\VC\TOOLS\MSVC\14.22.27905\INCLUDE\VCRUNTIME_NEW_DEBUG.H
D:\PROGRAMME\VISUAL_STUDIO\VC\TOOLS\MSVC\14.22.27905\INCLUDE\VCRUNTIME_NEW.H
D:\PROGRAMME\VISUAL_STUDIO\VC\TOOLS\MSVC\14.22.27905\INCLUDE\USE_ANSI.H
D:\PROGRAMME\VISUAL_STUDIO\VC\TOOLS\MSVC\14.22.27905\INCLUDE\CSTDLIB
D:\WINDOWS KITS\10\INCLUDE\10.0.18362.0\UCRT\MATH.H
D:\WINDOWS KITS\10\INCLUDE\10.0.18362.0\UCRT\CORECRT_MATH.H
D:\WINDOWS KITS\10\INCLUDE\10.0.18362.0\UCRT\STDLIB.H
D:\WINDOWS KITS\10\INCLUDE\10.0.18362.0\UCRT\CORECRT_MALLOC.H
D:\WINDOWS KITS\10\INCLUDE\10.0.18362.0\UCRT\CORECRT_SEARCH.H
D:\WINDOWS KITS\10\INCLUDE\10.0.18362.0\UCRT\STDDEF.H
D:\WINDOWS KITS\10\INCLUDE\10.0.18362.0\UCRT\CORECRT_WSTDLIB.H
D:\PROGRAMME\VISUAL_STUDIO\VC\TOOLS\MSVC\14.22.27905\INCLUDE\XTGMATH.H
D:\PROGRAMME\VISUAL_STUDIO\VC\TOOLS\MSVC\14.22.27905\INCLUDE\XTR1COMMON
D:\PROGRAMME\VISUAL_STUDIO\VC\TOOLS\MSVC\14.22.27905\INCLUDE\CSTDIO
D:\WINDOWS KITS\10\INCLUDE\10.0.18362.0\UCRT\STDIO.H
D:\WINDOWS KITS\10\INCLUDE\10.0.18362.0\UCRT\CORECRT_WSTDIO.H
D:\WINDOWS KITS\10\INCLUDE\10.0.18362.0\UCRT\CORECRT_STDIO_CONFIG.H
D:\PROGRAMME\VISUAL_STUDIO\VC\TOOLS\MSVC\14.22.27905\INCLUDE\STREAMBUF
D:\PROGRAMME\VISUAL_STUDIO\VC\TOOLS\MSVC\14.22.27905\INCLUDE\XIOSBASE
D:\WINDOWS KITS\10\INCLUDE\10.0.18362.0\UCRT\SHARE.H
D:\WINDOWS KITS\10\INCLUDE\10.0.18362.0\UCRT\CORECRT_SHARE.H
D:\PROGRAMME\VISUAL_STUDIO\VC\TOOLS\MSVC\14.22.27905\INCLUDE\SYSTEM_ERROR
D:\PROGRAMME\VISUAL_STUDIO\VC\TOOLS\MSVC\14.22.27905\INCLUDE\CERRNO
D:\WINDOWS KITS\10\INCLUDE\10.0.18362.0\UCRT\ERRNO.H
D:\PROGRAMME\VISUAL_STUDIO\VC\TOOLS\MSVC\14.22.27905\INCLUDE\STDEXCEPT
D:\PROGRAMME\VISUAL_STUDIO\VC\TOOLS\MSVC\14.22.27905\INCLUDE\EXCEPTION
D:\PROGRAMME\VISUAL_STUDIO\VC\TOOLS\MSVC\14.22.27905\INCLUDE\TYPE_TRAITS
D:\PROGRAMME\VISUAL_STUDIO\VC\TOOLS\MSVC\14.22.27905\INCLUDE\XSTDDEF
D:\PROGRAMME\VISUAL_STUDIO\VC\TOOLS\MSVC\14.22.27905\INCLUDE\CSTDDEF
D:\PROGRAMME\VISUAL_STUDIO\VC\TOOLS\MSVC\14.22.27905\INCLUDE\INITIALIZER_LIST
D:\WINDOWS KITS\10\INCLUDE\10.0.18362.0\UCRT\MALLOC.H
D:\PROGRAMME\VISUAL_STUDIO\VC\TOOLS\MSVC\14.22.27905\INCLUDE\VCRUNTIME_EXCEPTION.H
D:\PROGRAMME\VISUAL_STUDIO\VC\TOOLS\MSVC\14.22.27905\INCLUDE\EH.H
D:\WINDOWS KITS\10\INCLUDE\10.0.18362.0\UCRT\CORECRT_TERMINATE.H
D:\PROGRAMME\VISUAL_STUDIO\VC\TOOLS\MSVC\14.22.27905\INCLUDE\XSTRING
D:\PROGRAMME\VISUAL_STUDIO\VC\TOOLS\MSVC\14.22.27905\INCLUDE\IOSFWD
D:\PROGRAMME\VISUAL_STUDIO\VC\TOOLS\MSVC\14.22.27905\INCLUDE\CSTRING
D:\WINDOWS KITS\10\INCLUDE\10.0.18362.0\UCRT\STRING.H
D:\WINDOWS KITS\10\INCLUDE\10.0.18362.0\UCRT\CORECRT_MEMORY.H
D:\WINDOWS KITS\10\INCLUDE\10.0.18362.0\UCRT\CORECRT_MEMCPY_S.H
D:\PROGRAMME\VISUAL_STUDIO\VC\TOOLS\MSVC\14.22.27905\INCLUDE\VCRUNTIME_STRING.H
D:\WINDOWS KITS\10\INCLUDE\10.0.18362.0\UCRT\CORECRT_WSTRING.H
D:\PROGRAMME\VISUAL_STUDIO\VC\TOOLS\MSVC\14.22.27905\INCLUDE\CWCHAR
D:\WINDOWS KITS\10\INCLUDE\10.0.18362.0\UCRT\WCHAR.H
D:\WINDOWS KITS\10\INCLUDE\10.0.18362.0\UCRT\CORECRT_WCONIO.H
D:\WINDOWS KITS\10\INCLUDE\10.0.18362.0\UCRT\CORECRT_WCTYPE.H
D:\WINDOWS KITS\10\INCLUDE\10.0.18362.0\UCRT\CORECRT_WDIRECT.H
D:\WINDOWS KITS\10\INCLUDE\10.0.18362.0\UCRT\CORECRT_WIO.H
D:\WINDOWS KITS\10\INCLUDE\10.0.18362.0\UCRT\CORECRT_WPROCESS.H
D:\WINDOWS KITS\10\INCLUDE\10.0.18362.0\UCRT\CORECRT_WTIME.H
D:\WINDOWS KITS\10\INCLUDE\10.0.18362.0\UCRT\SYS\STAT.H
D:\WINDOWS KITS\10\INCLUDE\10.0.18362.0\UCRT\SYS\TYPES.H
D:\PROGRAMME\VISUAL_STUDIO\VC\TOOLS\MSVC\14.22.27905\INCLUDE\XMEMORY
D:\PROGRAMME\VISUAL_STUDIO\VC\TOOLS\MSVC\14.22.27905\INCLUDE\CSTDINT
D:\PROGRAMME\VISUAL_STUDIO\VC\TOOLS\MSVC\14.22.27905\INCLUDE\STDINT.H
D:\PROGRAMME\VISUAL_STUDIO\VC\TOOLS\MSVC\14.22.27905\INCLUDE\LIMITS
D:\PROGRAMME\VISUAL_STUDIO\VC\TOOLS\MSVC\14.22.27905\INCLUDE\CFLOAT
D:\WINDOWS KITS\10\INCLUDE\10.0.18362.0\UCRT\FLOAT.H
D:\PROGRAMME\VISUAL_STUDIO\VC\TOOLS\MSVC\14.22.27905\INCLUDE\NEW
D:\PROGRAMME\VISUAL_STUDIO\VC\TOOLS\MSVC\14.22.27905\INCLUDE\XATOMIC.H
D:\PROGRAMME\VISUAL_STUDIO\VC\TOOLS\MSVC\14.22.27905\INCLUDE\INTRIN0.H
D:\PROGRAMME\VISUAL_STUDIO\VC\TOOLS\MSVC\14.22.27905\INCLUDE\XUTILITY
D:\PROGRAMME\VISUAL_STUDIO\VC\TOOLS\MSVC\14.22.27905\INCLUDE\UTILITY
D:\PROGRAMME\VISUAL_STUDIO\VC\TOOLS\MSVC\14.22.27905\INCLUDE\XCALL_ONCE.H
D:\PROGRAMME\VISUAL_STUDIO\VC\TOOLS\MSVC\14.22.27905\INCLUDE\XERRC.H
D:\PROGRAMME\VISUAL_STUDIO\VC\TOOLS\MSVC\14.22.27905\INCLUDE\XLOCALE
D:\PROGRAMME\VISUAL_STUDIO\VC\TOOLS\MSVC\14.22.27905\INCLUDE\MEMORY
D:\PROGRAMME\VISUAL_STUDIO\VC\TOOLS\MSVC\14.22.27905\INCLUDE\TYPEINFO
D:\PROGRAMME\VISUAL_STUDIO\VC\TOOLS\MSVC\14.22.27905\INCLUDE\VCRUNTIME_TYPEINFO.H
D:\PROGRAMME\VISUAL_STUDIO\VC\TOOLS\MSVC\14.22.27905\INCLUDE\XFACET
D:\PROGRAMME\VISUAL_STUDIO\VC\TOOLS\MSVC\14.22.27905\INCLUDE\XLOCINFO
D:\PROGRAMME\VISUAL_STUDIO\VC\TOOLS\MSVC\14.22.27905\INCLUDE\XLOCINFO.H
D:\WINDOWS KITS\10\INCLUDE\10.0.18362.0\UCRT\CTYPE.H
D:\WINDOWS KITS\10\INCLUDE\10.0.18362.0\UCRT\LOCALE.H
