^C:\USERS\THEOD\SOURCE\REPOS\PTUT_SERVEUR\PTUT_SERVEUR\ELEMENT_GRAPH.CPP
/c /ZI /JMC /nologo /W3 /WX- /diagnostics:column /sdl /Od /Oy- /D WIN32 /D _DEBUG /D _CONSOLE /D _UNICODE /D UNICODE /Gm- /EHsc /RTC1 /MDd /GS /fp:precise /permissive- /Zc:wchar_t /Zc:forScope /Zc:inline /Fo"DEBUG\\" /Fd"DEBUG\VC142.PDB" /Gd /TP /analyze- /FC C:\USERS\THEOD\SOURCE\REPOS\PTUT_SERVEUR\PTUT_SERVEUR\ELEMENT_GRAPH.CPP
^C:\USERS\THEOD\SOURCE\REPOS\PTUT_SERVEUR\PTUT_SERVEUR\APPLICATION.CPP
/c /ID:\PROGRAMME\SFML\INCLUDE /ZI /JMC /nologo /W3 /WX- /diagnostics:column /sdl /Od /Oy- /D WIN32 /D _DEBUG /D _CONSOLE /D _UNICODE /D UNICODE /Gm- /EHsc /RTC1 /MDd /GS /fp:precise /permissive- /Zc:wchar_t /Zc:forScope /Zc:inline /Fo"DEBUG\\" /Fd"DEBUG\VC142.PDB" /Gd /TP /analyze- /FC C:\USERS\THEOD\SOURCE\REPOS\PTUT_SERVEUR\PTUT_SERVEUR\APPLICATION.CPP
^C:\USERS\THEOD\SOURCE\REPOS\PTUT_SERVEUR\PTUT_SERVEUR\CAR.CPP
/c /ID:\PROGRAMME\SFML\INCLUDE /ZI /JMC /nologo /W3 /WX- /diagnostics:column /sdl /Od /Oy- /D WIN32 /D _DEBUG /D _CONSOLE /D _UNICODE /D UNICODE /Gm- /EHsc /RTC1 /MDd /GS /fp:precise /permissive- /Zc:wchar_t /Zc:forScope /Zc:inline /Fo"DEBUG\\" /Fd"DEBUG\VC142.PDB" /Gd /TP /analyze- /FC C:\USERS\THEOD\SOURCE\REPOS\PTUT_SERVEUR\PTUT_SERVEUR\CAR.CPP
^C:\USERS\THEOD\SOURCE\REPOS\PTUT_SERVEUR\PTUT_SERVEUR\CURVEDROADDESCRIPTOR.CPP
/c /ID:\PROGRAMME\SFML\INCLUDE /ZI /JMC /nologo /W3 /WX- /diagnostics:column /sdl /Od /Oy- /D WIN32 /D _DEBUG /D _CONSOLE /D _UNICODE /D UNICODE /Gm- /EHsc /RTC1 /MDd /GS /fp:precise /permissive- /Zc:wchar_t /Zc:forScope /Zc:inline /Fo"DEBUG\\" /Fd"DEBUG\VC142.PDB" /Gd /TP /analyze- /FC C:\USERS\THEOD\SOURCE\REPOS\PTUT_SERVEUR\PTUT_SERVEUR\CURVEDROADDESCRIPTOR.CPP
^C:\USERS\THEOD\SOURCE\REPOS\PTUT_SERVEUR\PTUT_SERVEUR\EDGE.CPP
/c /ID:\PROGRAMME\SFML\INCLUDE /ZI /JMC /nologo /W3 /WX- /diagnostics:column /sdl /Od /Oy- /D WIN32 /D _DEBUG /D _CONSOLE /D _UNICODE /D UNICODE /Gm- /EHsc /RTC1 /MDd /GS /fp:precise /permissive- /Zc:wchar_t /Zc:forScope /Zc:inline /Fo"DEBUG\\" /Fd"DEBUG\VC142.PDB" /Gd /TP /analyze- /FC C:\USERS\THEOD\SOURCE\REPOS\PTUT_SERVEUR\PTUT_SERVEUR\EDGE.CPP
^C:\USERS\THEOD\SOURCE\REPOS\PTUT_SERVEUR\PTUT_SERVEUR\GRAPH.CPP
/c /ID:\PROGRAMME\SFML\INCLUDE /ZI /JMC /nologo /W3 /WX- /diagnostics:column /sdl /Od /Oy- /D WIN32 /D _DEBUG /D _CONSOLE /D _UNICODE /D UNICODE /Gm- /EHsc /RTC1 /MDd /GS /fp:precise /permissive- /Zc:wchar_t /Zc:forScope /Zc:inline /Fo"DEBUG\\" /Fd"DEBUG\VC142.PDB" /Gd /TP /analyze- /FC C:\USERS\THEOD\SOURCE\REPOS\PTUT_SERVEUR\PTUT_SERVEUR\GRAPH.CPP
^C:\USERS\THEOD\SOURCE\REPOS\PTUT_SERVEUR\PTUT_SERVEUR\GRAPHICALCAR.CPP
/c /ID:\PROGRAMME\SFML\INCLUDE /ZI /JMC /nologo /W3 /WX- /diagnostics:column /sdl /Od /Oy- /D WIN32 /D _DEBUG /D _CONSOLE /D _UNICODE /D UNICODE /Gm- /EHsc /RTC1 /MDd /GS /fp:precise /permissive- /Zc:wchar_t /Zc:forScope /Zc:inline /Fo"DEBUG\\" /Fd"DEBUG\VC142.PDB" /Gd /TP /analyze- /FC C:\USERS\THEOD\SOURCE\REPOS\PTUT_SERVEUR\PTUT_SERVEUR\GRAPHICALCAR.CPP
^C:\USERS\THEOD\SOURCE\REPOS\PTUT_SERVEUR\PTUT_SERVEUR\INTERFACE.CPP
/c /ID:\PROGRAMME\SFML\INCLUDE /ZI /JMC /nologo /W3 /WX- /diagnostics:column /sdl /Od /Oy- /D WIN32 /D _DEBUG /D _CONSOLE /D _UNICODE /D UNICODE /Gm- /EHsc /RTC1 /MDd /GS /fp:precise /permissive- /Zc:wchar_t /Zc:forScope /Zc:inline /Fo"DEBUG\\" /Fd"DEBUG\VC142.PDB" /Gd /TP /analyze- /FC C:\USERS\THEOD\SOURCE\REPOS\PTUT_SERVEUR\PTUT_SERVEUR\INTERFACE.CPP
^C:\USERS\THEOD\SOURCE\REPOS\PTUT_SERVEUR\PTUT_SERVEUR\PTUT_SERVEUR.CPP
/c /ID:\PROGRAMME\SFML\INCLUDE /ZI /JMC /nologo /W3 /WX- /diagnostics:column /sdl /Od /Oy- /D WIN32 /D _DEBUG /D _CONSOLE /D _UNICODE /D UNICODE /Gm- /EHsc /RTC1 /MDd /GS /fp:precise /permissive- /Zc:wchar_t /Zc:forScope /Zc:inline /Fo"DEBUG\\" /Fd"DEBUG\VC142.PDB" /Gd /TP /analyze- /FC C:\USERS\THEOD\SOURCE\REPOS\PTUT_SERVEUR\PTUT_SERVEUR\PTUT_SERVEUR.CPP
^C:\USERS\THEOD\SOURCE\REPOS\PTUT_SERVEUR\PTUT_SERVEUR\ROADDESCRIPTOR.CPP
/c /ID:\PROGRAMME\SFML\INCLUDE /ZI /JMC /nologo /W3 /WX- /diagnostics:column /sdl /Od /Oy- /D WIN32 /D _DEBUG /D _CONSOLE /D _UNICODE /D UNICODE /Gm- /EHsc /RTC1 /MDd /GS /fp:precise /permissive- /Zc:wchar_t /Zc:forScope /Zc:inline /Fo"DEBUG\\" /Fd"DEBUG\VC142.PDB" /Gd /TP /analyze- /FC C:\USERS\THEOD\SOURCE\REPOS\PTUT_SERVEUR\PTUT_SERVEUR\ROADDESCRIPTOR.CPP
^C:\USERS\THEOD\SOURCE\REPOS\PTUT_SERVEUR\PTUT_SERVEUR\STRAIGHTROADDESCRIPTOR.CPP
/c /ID:\PROGRAMME\SFML\INCLUDE /ZI /JMC /nologo /W3 /WX- /diagnostics:column /sdl /Od /Oy- /D WIN32 /D _DEBUG /D _CONSOLE /D _UNICODE /D UNICODE /Gm- /EHsc /RTC1 /MDd /GS /fp:precise /permissive- /Zc:wchar_t /Zc:forScope /Zc:inline /Fo"DEBUG\\" /Fd"DEBUG\VC142.PDB" /Gd /TP /analyze- /FC C:\USERS\THEOD\SOURCE\REPOS\PTUT_SERVEUR\PTUT_SERVEUR\STRAIGHTROADDESCRIPTOR.CPP
^C:\USERS\THEOD\SOURCE\REPOS\PTUT_SERVEUR\PTUT_SERVEUR\TODO.CPP
/c /ID:\PROGRAMME\SFML\INCLUDE /ZI /JMC /nologo /W3 /WX- /diagnostics:column /sdl /Od /Oy- /D WIN32 /D _DEBUG /D _CONSOLE /D _UNICODE /D UNICODE /Gm- /EHsc /RTC1 /MDd /GS /fp:precise /permissive- /Zc:wchar_t /Zc:forScope /Zc:inline /Fo"DEBUG\\" /Fd"DEBUG\VC142.PDB" /Gd /TP /analyze- /FC C:\USERS\THEOD\SOURCE\REPOS\PTUT_SERVEUR\PTUT_SERVEUR\TODO.CPP
^C:\USERS\THEOD\SOURCE\REPOS\PTUT_SERVEUR\PTUT_SERVEUR\TRIGO.CPP
/c /ID:\PROGRAMME\SFML\INCLUDE /ZI /JMC /nologo /W3 /WX- /diagnostics:column /sdl /Od /Oy- /D WIN32 /D _DEBUG /D _CONSOLE /D _UNICODE /D UNICODE /Gm- /EHsc /RTC1 /MDd /GS /fp:precise /permissive- /Zc:wchar_t /Zc:forScope /Zc:inline /Fo"DEBUG\\" /Fd"DEBUG\VC142.PDB" /Gd /TP /analyze- /FC C:\USERS\THEOD\SOURCE\REPOS\PTUT_SERVEUR\PTUT_SERVEUR\TRIGO.CPP
^C:\USERS\MELVYNP\DESKTOP\IUT\PTUT_SERVEUR\PTUT_SERVEUR\APPLICATION.CPP
/c /I"C:\USERS\MELVYNP\DESKTOP\C++ NIMP\SFML-2.5.1\INCLUDE" /ZI /JMC /nologo /W3 /WX- /diagnostics:column /sdl /Od /Oy- /D WIN32 /D _DEBUG /D _CONSOLE /D _UNICODE /D UNICODE /Gm- /EHsc /RTC1 /MDd /GS /fp:precise /permissive- /Zc:wchar_t /Zc:forScope /Zc:inline /Fo"DEBUG\\" /Fd"DEBUG\VC142.PDB" /Gd /TP /analyze- /FC C:\USERS\MELVYNP\DESKTOP\IUT\PTUT_SERVEUR\PTUT_SERVEUR\APPLICATION.CPP
^C:\USERS\MELVYNP\DESKTOP\IUT\PTUT_SERVEUR\PTUT_SERVEUR\CAR.CPP
/c /I"C:\USERS\MELVYNP\DESKTOP\C++ NIMP\SFML-2.5.1\INCLUDE" /ZI /JMC /nologo /W3 /WX- /diagnostics:column /sdl /Od /Oy- /D WIN32 /D _DEBUG /D _CONSOLE /D _UNICODE /D UNICODE /Gm- /EHsc /RTC1 /MDd /GS /fp:precise /permissive- /Zc:wchar_t /Zc:forScope /Zc:inline /Fo"DEBUG\\" /Fd"DEBUG\VC142.PDB" /Gd /TP /analyze- /FC C:\USERS\MELVYNP\DESKTOP\IUT\PTUT_SERVEUR\PTUT_SERVEUR\CAR.CPP
^C:\USERS\MELVYNP\DESKTOP\IUT\PTUT_SERVEUR\PTUT_SERVEUR\EDGE.CPP
/c /I"C:\USERS\MELVYNP\DESKTOP\C++ NIMP\SFML-2.5.1\INCLUDE" /ZI /JMC /nologo /W3 /WX- /diagnostics:column /sdl /Od /Oy- /D WIN32 /D _DEBUG /D _CONSOLE /D _UNICODE /D UNICODE /Gm- /EHsc /RTC1 /MDd /GS /fp:precise /permissive- /Zc:wchar_t /Zc:forScope /Zc:inline /Fo"DEBUG\\" /Fd"DEBUG\VC142.PDB" /Gd /TP /analyze- /FC C:\USERS\MELVYNP\DESKTOP\IUT\PTUT_SERVEUR\PTUT_SERVEUR\EDGE.CPP
^C:\USERS\MELVYNP\DESKTOP\IUT\PTUT_SERVEUR\PTUT_SERVEUR\FILE.CPP
/c /I"C:\USERS\MELVYNP\DESKTOP\C++ NIMP\SFML-2.5.1\INCLUDE" /ZI /JMC /nologo /W3 /WX- /diagnostics:column /sdl /Od /Oy- /D WIN32 /D _DEBUG /D _CONSOLE /D _UNICODE /D UNICODE /Gm- /EHsc /RTC1 /MDd /GS /fp:precise /permissive- /Zc:wchar_t /Zc:forScope /Zc:inline /Fo"DEBUG\\" /Fd"DEBUG\VC142.PDB" /Gd /TP /analyze- /FC C:\USERS\MELVYNP\DESKTOP\IUT\PTUT_SERVEUR\PTUT_SERVEUR\FILE.CPP
^C:\USERS\MELVYNP\DESKTOP\IUT\PTUT_SERVEUR\PTUT_SERVEUR\GRAPH.CPP
/c /I"C:\USERS\MELVYNP\DESKTOP\C++ NIMP\SFML-2.5.1\INCLUDE" /ZI /JMC /nologo /W3 /WX- /diagnostics:column /sdl /Od /Oy- /D WIN32 /D _DEBUG /D _CONSOLE /D _UNICODE /D UNICODE /Gm- /EHsc /RTC1 /MDd /GS /fp:precise /permissive- /Zc:wchar_t /Zc:forScope /Zc:inline /Fo"DEBUG\\" /Fd"DEBUG\VC142.PDB" /Gd /TP /analyze- /FC C:\USERS\MELVYNP\DESKTOP\IUT\PTUT_SERVEUR\PTUT_SERVEUR\GRAPH.CPP
^C:\USERS\MELVYNP\DESKTOP\IUT\PTUT_SERVEUR\PTUT_SERVEUR\INTERFACE.CPP
/c /I"C:\USERS\MELVYNP\DESKTOP\C++ NIMP\SFML-2.5.1\INCLUDE" /ZI /JMC /nologo /W3 /WX- /diagnostics:column /sdl /Od /Oy- /D WIN32 /D _DEBUG /D _CONSOLE /D _UNICODE /D UNICODE /Gm- /EHsc /RTC1 /MDd /GS /fp:precise /permissive- /Zc:wchar_t /Zc:forScope /Zc:inline /Fo"DEBUG\\" /Fd"DEBUG\VC142.PDB" /Gd /TP /analyze- /FC C:\USERS\MELVYNP\DESKTOP\IUT\PTUT_SERVEUR\PTUT_SERVEUR\INTERFACE.CPP
^C:\USERS\MELVYNP\DESKTOP\IUT\PTUT_SERVEUR\PTUT_SERVEUR\PTUT_SERVEUR.CPP
/c /I"C:\USERS\MELVYNP\DESKTOP\C++ NIMP\SFML-2.5.1\INCLUDE" /ZI /JMC /nologo /W3 /WX- /diagnostics:column /sdl /Od /Oy- /D WIN32 /D _DEBUG /D _CONSOLE /D _UNICODE /D UNICODE /Gm- /EHsc /RTC1 /MDd /GS /fp:precise /permissive- /Zc:wchar_t /Zc:forScope /Zc:inline /Fo"DEBUG\\" /Fd"DEBUG\VC142.PDB" /Gd /TP /analyze- /FC C:\USERS\MELVYNP\DESKTOP\IUT\PTUT_SERVEUR\PTUT_SERVEUR\PTUT_SERVEUR.CPP
^C:\USERS\MELVYNP\DESKTOP\IUT\PTUT_SERVEUR\PTUT_SERVEUR\SERVER.CPP
/c /I"C:\USERS\MELVYNP\DESKTOP\C++ NIMP\SFML-2.5.1\INCLUDE" /ZI /JMC /nologo /W3 /WX- /diagnostics:column /sdl /Od /Oy- /D WIN32 /D _DEBUG /D _CONSOLE /D _UNICODE /D UNICODE /Gm- /EHsc /RTC1 /MDd /GS /fp:precise /permissive- /Zc:wchar_t /Zc:forScope /Zc:inline /Fo"DEBUG\\" /Fd"DEBUG\VC142.PDB" /Gd /TP /analyze- /FC C:\USERS\MELVYNP\DESKTOP\IUT\PTUT_SERVEUR\PTUT_SERVEUR\SERVER.CPP
^C:\USERS\MELVYNP\DESKTOP\IUT\PTUT_SERVEUR\PTUT_SERVEUR\SPEEDHANDLER.CPP
/c /I"C:\USERS\MELVYNP\DESKTOP\C++ NIMP\SFML-2.5.1\INCLUDE" /ZI /JMC /nologo /W3 /WX- /diagnostics:column /sdl /Od /Oy- /D WIN32 /D _DEBUG /D _CONSOLE /D _UNICODE /D UNICODE /Gm- /EHsc /RTC1 /MDd /GS /fp:precise /permissive- /Zc:wchar_t /Zc:forScope /Zc:inline /Fo"DEBUG\\" /Fd"DEBUG\VC142.PDB" /Gd /TP /analyze- /FC C:\USERS\MELVYNP\DESKTOP\IUT\PTUT_SERVEUR\PTUT_SERVEUR\SPEEDHANDLER.CPP
^C:\USERS\MELVYNP\DESKTOP\IUT\PTUT_SERVEUR\PTUT_SERVEUR\TRIGO.CPP
/c /I"C:\USERS\MELVYNP\DESKTOP\C++ NIMP\SFML-2.5.1\INCLUDE" /ZI /JMC /nologo /W3 /WX- /diagnostics:column /sdl /Od /Oy- /D WIN32 /D _DEBUG /D _CONSOLE /D _UNICODE /D UNICODE /Gm- /EHsc /RTC1 /MDd /GS /fp:precise /permissive- /Zc:wchar_t /Zc:forScope /Zc:inline /Fo"DEBUG\\" /Fd"DEBUG\VC142.PDB" /Gd /TP /analyze- /FC C:\USERS\MELVYNP\DESKTOP\IUT\PTUT_SERVEUR\PTUT_SERVEUR\TRIGO.CPP
