^C:\USERS\MELVYNP\DESKTOP\IUT\PTUT_SERVEUR\PTUT_SERVEUR\APPLICATION.CPP|C:\USERS\MELVYNP\DESKTOP\IUT\PTUT_SERVEUR\PTUT_SERVEUR\CAR.CPP|C:\USERS\MELVYNP\DESKTOP\IUT\PTUT_SERVEUR\PTUT_SERVEUR\EDGE.CPP|C:\USERS\MELVYNP\DESKTOP\IUT\PTUT_SERVEUR\PTUT_SERVEUR\FILE.CPP|C:\USERS\MELVYNP\DESKTOP\IUT\PTUT_SERVEUR\PTUT_SERVEUR\GRAPH.CPP|C:\USERS\MELVYNP\DESKTOP\IUT\PTUT_SERVEUR\PTUT_SERVEUR\INTERFACE.CPP|C:\USERS\MELVYNP\DESKTOP\IUT\PTUT_SERVEUR\PTUT_SERVEUR\PTUT_SERVEUR.CPP|C:\USERS\MELVYNP\DESKTOP\IUT\PTUT_SERVEUR\PTUT_SERVEUR\SERVER.CPP|C:\USERS\MELVYNP\DESKTOP\IUT\PTUT_SERVEUR\PTUT_SERVEUR\SPEEDHANDLER.CPP|C:\USERS\MELVYNP\DESKTOP\IUT\PTUT_SERVEUR\PTUT_SERVEUR\TRIGO.CPP
C:\USERS\MELVYNP\DESKTOP\IUT\PTUT_SERVEUR\PTUT_SERVEUR\RELEASE\VC142.PDB
C:\USERS\MELVYNP\DESKTOP\IUT\PTUT_SERVEUR\PTUT_SERVEUR\RELEASE\TRIGO.OBJ
C:\USERS\MELVYNP\DESKTOP\IUT\PTUT_SERVEUR\PTUT_SERVEUR\RELEASE\SPEEDHANDLER.OBJ
C:\USERS\MELVYNP\DESKTOP\IUT\PTUT_SERVEUR\PTUT_SERVEUR\RELEASE\SERVER.OBJ
C:\USERS\MELVYNP\DESKTOP\IUT\PTUT_SERVEUR\PTUT_SERVEUR\RELEASE\PTUT_SERVEUR.OBJ
C:\USERS\MELVYNP\DESKTOP\IUT\PTUT_SERVEUR\PTUT_SERVEUR\RELEASE\INTERFACE.OBJ
C:\USERS\MELVYNP\DESKTOP\IUT\PTUT_SERVEUR\PTUT_SERVEUR\RELEASE\GRAPH.OBJ
C:\USERS\MELVYNP\DESKTOP\IUT\PTUT_SERVEUR\PTUT_SERVEUR\RELEASE\FILE.OBJ
C:\USERS\MELVYNP\DESKTOP\IUT\PTUT_SERVEUR\PTUT_SERVEUR\RELEASE\EDGE.OBJ
C:\USERS\MELVYNP\DESKTOP\IUT\PTUT_SERVEUR\PTUT_SERVEUR\RELEASE\CAR.OBJ
C:\USERS\MELVYNP\DESKTOP\IUT\PTUT_SERVEUR\PTUT_SERVEUR\RELEASE\APPLICATION.OBJ
^C:\USERS\MELVYNP\DESKTOP\IUT\PTUT_SERVEUR\PTUT_SERVEUR\EDGE.CPP
C:\USERS\MELVYNP\DESKTOP\IUT\PTUT_SERVEUR\PTUT_SERVEUR\RELEASE\VC142.PDB
^C:\USERS\MELVYNP\DESKTOP\IUT\PTUT_SERVEUR\PTUT_SERVEUR\FILE.CPP
C:\USERS\MELVYNP\DESKTOP\IUT\PTUT_SERVEUR\PTUT_SERVEUR\RELEASE\VC142.PDB
^C:\USERS\MELVYNP\DESKTOP\IUT\PTUT_SERVEUR\PTUT_SERVEUR\TRIGO.CPP
C:\USERS\MELVYNP\DESKTOP\IUT\PTUT_SERVEUR\PTUT_SERVEUR\RELEASE\VC142.PDB
^C:\USERS\MELVYNP\DESKTOP\IUT\PTUT_SERVEUR\PTUT_SERVEUR\APPLICATION.CPP|C:\USERS\MELVYNP\DESKTOP\IUT\PTUT_SERVEUR\PTUT_SERVEUR\CAR.CPP|C:\USERS\MELVYNP\DESKTOP\IUT\PTUT_SERVEUR\PTUT_SERVEUR\INTERFACE.CPP|C:\USERS\MELVYNP\DESKTOP\IUT\PTUT_SERVEUR\PTUT_SERVEUR\PTUT_SERVEUR.CPP|C:\USERS\MELVYNP\DESKTOP\IUT\PTUT_SERVEUR\PTUT_SERVEUR\SERVER.CPP
C:\USERS\MELVYNP\DESKTOP\IUT\PTUT_SERVEUR\PTUT_SERVEUR\RELEASE\VC142.PDB
C:\USERS\MELVYNP\DESKTOP\IUT\PTUT_SERVEUR\PTUT_SERVEUR\RELEASE\SERVER.OBJ
C:\USERS\MELVYNP\DESKTOP\IUT\PTUT_SERVEUR\PTUT_SERVEUR\RELEASE\PTUT_SERVEUR.OBJ
C:\USERS\MELVYNP\DESKTOP\IUT\PTUT_SERVEUR\PTUT_SERVEUR\RELEASE\INTERFACE.OBJ
C:\USERS\MELVYNP\DESKTOP\IUT\PTUT_SERVEUR\PTUT_SERVEUR\RELEASE\CAR.OBJ
C:\USERS\MELVYNP\DESKTOP\IUT\PTUT_SERVEUR\PTUT_SERVEUR\RELEASE\APPLICATION.OBJ
^C:\USERS\MELVYNP\DESKTOP\IUT\PTUT_SERVEUR\PTUT_SERVEUR\INTERFACE.CPP|C:\USERS\MELVYNP\DESKTOP\IUT\PTUT_SERVEUR\PTUT_SERVEUR\PTUT_SERVEUR.CPP
C:\USERS\MELVYNP\DESKTOP\IUT\PTUT_SERVEUR\PTUT_SERVEUR\RELEASE\VC142.PDB
C:\USERS\MELVYNP\DESKTOP\IUT\PTUT_SERVEUR\PTUT_SERVEUR\RELEASE\PTUT_SERVEUR.OBJ
C:\USERS\MELVYNP\DESKTOP\IUT\PTUT_SERVEUR\PTUT_SERVEUR\RELEASE\INTERFACE.OBJ
^C:\USERS\MELVYNP\DESKTOP\IUT\PTUT_SERVEUR\PTUT_SERVEUR\APPLICATION.CPP|C:\USERS\MELVYNP\DESKTOP\IUT\PTUT_SERVEUR\PTUT_SERVEUR\CAR.CPP|C:\USERS\MELVYNP\DESKTOP\IUT\PTUT_SERVEUR\PTUT_SERVEUR\GRAPH.CPP|C:\USERS\MELVYNP\DESKTOP\IUT\PTUT_SERVEUR\PTUT_SERVEUR\INTERFACE.CPP|C:\USERS\MELVYNP\DESKTOP\IUT\PTUT_SERVEUR\PTUT_SERVEUR\PTUT_SERVEUR.CPP|C:\USERS\MELVYNP\DESKTOP\IUT\PTUT_SERVEUR\PTUT_SERVEUR\SERVER.CPP|C:\USERS\MELVYNP\DESKTOP\IUT\PTUT_SERVEUR\PTUT_SERVEUR\SPEEDHANDLER.CPP
C:\USERS\MELVYNP\DESKTOP\IUT\PTUT_SERVEUR\PTUT_SERVEUR\RELEASE\VC142.PDB
C:\USERS\MELVYNP\DESKTOP\IUT\PTUT_SERVEUR\PTUT_SERVEUR\RELEASE\SPEEDHANDLER.OBJ
C:\USERS\MELVYNP\DESKTOP\IUT\PTUT_SERVEUR\PTUT_SERVEUR\RELEASE\SERVER.OBJ
C:\USERS\MELVYNP\DESKTOP\IUT\PTUT_SERVEUR\PTUT_SERVEUR\RELEASE\PTUT_SERVEUR.OBJ
C:\USERS\MELVYNP\DESKTOP\IUT\PTUT_SERVEUR\PTUT_SERVEUR\RELEASE\INTERFACE.OBJ
C:\USERS\MELVYNP\DESKTOP\IUT\PTUT_SERVEUR\PTUT_SERVEUR\RELEASE\GRAPH.OBJ
C:\USERS\MELVYNP\DESKTOP\IUT\PTUT_SERVEUR\PTUT_SERVEUR\RELEASE\CAR.OBJ
C:\USERS\MELVYNP\DESKTOP\IUT\PTUT_SERVEUR\PTUT_SERVEUR\RELEASE\APPLICATION.OBJ
^C:\USERS\MELVYNP\DESKTOP\IUT\PTUT_SERVEUR\PTUT_SERVEUR\CAR.CPP
C:\USERS\MELVYNP\DESKTOP\IUT\PTUT_SERVEUR\PTUT_SERVEUR\RELEASE\VC142.PDB
^C:\USERS\MELVYNP\DESKTOP\IUT\PTUT_SERVEUR\PTUT_SERVEUR\GRAPH.CPP
C:\USERS\MELVYNP\DESKTOP\IUT\PTUT_SERVEUR\PTUT_SERVEUR\RELEASE\VC142.PDB
^C:\USERS\MELVYNP\DESKTOP\IUT\PTUT_SERVEUR\PTUT_SERVEUR\INTERFACE.CPP
C:\USERS\MELVYNP\DESKTOP\IUT\PTUT_SERVEUR\PTUT_SERVEUR\RELEASE\VC142.PDB
^C:\USERS\MELVYNP\DESKTOP\IUT\PTUT_SERVEUR\PTUT_SERVEUR\PTUT_SERVEUR.CPP
C:\USERS\MELVYNP\DESKTOP\IUT\PTUT_SERVEUR\PTUT_SERVEUR\RELEASE\VC142.PDB
^C:\USERS\MELVYNP\DESKTOP\IUT\PTUT_SERVEUR\PTUT_SERVEUR\SERVER.CPP
C:\USERS\MELVYNP\DESKTOP\IUT\PTUT_SERVEUR\PTUT_SERVEUR\RELEASE\VC142.PDB
^C:\USERS\MELVYNP\DESKTOP\IUT\PTUT_SERVEUR\PTUT_SERVEUR\SPEEDHANDLER.CPP
C:\USERS\MELVYNP\DESKTOP\IUT\PTUT_SERVEUR\PTUT_SERVEUR\RELEASE\VC142.PDB
^C:\USERS\MELVYNP\DESKTOP\IUT\PTUT_SERVEUR\PTUT_SERVEUR\APPLICATION.CPP
C:\USERS\MELVYNP\DESKTOP\IUT\PTUT_SERVEUR\PTUT_SERVEUR\RELEASE\VC142.PDB
C:\USERS\MELVYNP\DESKTOP\IUT\PTUT_SERVEUR\PTUT_SERVEUR\RELEASE\APPLICATION.OBJ
