^C:\USERS\MELVYNP\DESKTOP\IUT\PTUT_SERVEUR\PTUT_SERVEUR\RELEASE\APPLICATION.OBJ|C:\USERS\MELVYNP\DESKTOP\IUT\PTUT_SERVEUR\PTUT_SERVEUR\RELEASE\CAR.OBJ|C:\USERS\MELVYNP\DESKTOP\IUT\PTUT_SERVEUR\PTUT_SERVEUR\RELEASE\EDGE.OBJ|C:\USERS\MELVYNP\DESKTOP\IUT\PTUT_SERVEUR\PTUT_SERVEUR\RELEASE\FILE.OBJ|C:\USERS\MELVYNP\DESKTOP\IUT\PTUT_SERVEUR\PTUT_SERVEUR\RELEASE\GRAPH.OBJ|C:\USERS\MELVYNP\DESKTOP\IUT\PTUT_SERVEUR\PTUT_SERVEUR\RELEASE\INTERFACE.OBJ|C:\USERS\MELVYNP\DESKTOP\IUT\PTUT_SERVEUR\PTUT_SERVEUR\RELEASE\PTUT_SERVEUR.OBJ|C:\USERS\MELVYNP\DESKTOP\IUT\PTUT_SERVEUR\PTUT_SERVEUR\RELEASE\SERVER.OBJ|C:\USERS\MELVYNP\DESKTOP\IUT\PTUT_SERVEUR\PTUT_SERVEUR\RELEASE\SPEEDHANDLER.OBJ|C:\USERS\MELVYNP\DESKTOP\IUT\PTUT_SERVEUR\PTUT_SERVEUR\RELEASE\TRIGO.OBJ
C:\USERS\MELVYNP\DESKTOP\IUT\PTUT_SERVEUR\PTUT_SERVEUR\RELEASE\PTUT_SERVEUR.EXE
C:\USERS\MELVYNP\DESKTOP\IUT\PTUT_SERVEUR\PTUT_SERVEUR\RELEASE\PTUT_SERVEUR.PDB
